<?xml version="1.0" encoding="UTF-8" standalone="no"?>
<!-- Created with Inkscape (http://www.inkscape.org/) -->

<svg
   xmlns:dc="http://purl.org/dc/elements/1.1/"
   xmlns:cc="http://creativecommons.org/ns#"
   xmlns:rdf="http://www.w3.org/1999/02/22-rdf-syntax-ns#"
   xmlns:svg="http://www.w3.org/2000/svg"
   xmlns="http://www.w3.org/2000/svg"
   version="1.1"
   width="210mm"
   height="297mm"
   id="svg2">
  <defs
     id="defs4" />
  <metadata
     id="metadata7">
    <rdf:RDF>
      <cc:Work
         rdf:about="">
        <dc:format>image/svg+xml</dc:format>
        <dc:type
           rdf:resource="http://purl.org/dc/dcmitype/StillImage" />
        <dc:title></dc:title>
      </cc:Work>
    </rdf:RDF>
  </metadata>
  <g
     id="layer2"
     style="display:inline">
    <path
       d="m 395.35714,757.71933 37.85715,-11.78572 c 0,0 -6.93881,-67.23725 -22.14286,-93.57143 -7.61405,-13.18792 -37.85714,-9.64286 -37.85714,-9.64286 0,0 -20.02652,9.63087 -17.14286,22.50001 7.48243,33.3925 39.28571,92.5 39.28571,92.5 z"
       id="path2997"
       style="fill:#aa4400;stroke:#000000;stroke-width:1px;stroke-linecap:butt;stroke-linejoin:miter;stroke-opacity:1" />
    <path
       d="m 439.4896,719.77744 13.92857,14.64285 37.85714,-16.42857 -16.78571,-14.28571 z"
       id="path2999"
       style="fill:#aa4400;stroke:#000000;stroke-width:1px;stroke-linecap:butt;stroke-linejoin:miter;stroke-opacity:1;display:inline" />
    <path
       d="m 423.06103,561.70601 13.57143,40 78.92857,-21.78572 -14.28572,-42.14285 z"
       id="path3001"
       style="fill:#aa4400;stroke:#000000;stroke-width:1px;stroke-linecap:butt;stroke-linejoin:miter;stroke-opacity:1;display:inline" />
    <path
       d="m 563.06103,548.63458 35.35714,1.42857 1.07143,-15 25.71429,-8.57143 -19.28572,-43.92857 -3.92857,-33.57143 -55,8.21429 -0.35714,27.5 0.35714,22.5 z"
       id="path3003"
       style="fill:#aa4400;stroke:#000000;stroke-width:1px;stroke-linecap:butt;stroke-linejoin:miter;stroke-opacity:1;display:inline" />
    <path
       d="m 524.31456,602.81159 19.65777,52.85039 24.49165,-7.7342 -20.62455,-52.52814 z"
       id="path3034"
       style="fill:#aa4400;stroke:#000000;stroke-width:1px;stroke-linecap:butt;stroke-linejoin:miter;stroke-opacity:1" />
    <path
       d="m 564.59687,634.07066 4.83388,12.24583 12.56808,-4.51162 -6.76743,-11.27905 z"
       id="path3036"
       style="fill:#aa4400;stroke:#000000;stroke-width:1px;stroke-linecap:butt;stroke-linejoin:miter;stroke-opacity:1" />
    <path
       d="m 525.6036,694.01074 7.7342,21.26906 62.19589,-19.01325 -9.66776,-20.9468 z"
       id="path3038"
       style="fill:#aa4400;stroke:#000000;stroke-width:1px;stroke-linecap:butt;stroke-linejoin:miter;stroke-opacity:1" />
    <path
       d="m 595.53369,689.49912 -8.37872,-17.40196 22.55809,-6.76742 6.12291,12.24582 -13.21259,4.18936 1.61129,5.47839 z"
       id="path3040"
       style="fill:#aa4400;stroke:#000000;stroke-width:1px;stroke-linecap:butt;stroke-linejoin:miter;stroke-opacity:1" />
    <path
       d="m 609.06855,475.51949 c 0,0 0,11.6013 2.25581,11.6013 2.2558,0 14.82389,-4.51162 14.82389,-4.51162 l -3.54485,-9.66775 z"
       id="path3042"
       style="fill:#aa4400;stroke:#000000;stroke-width:1px;stroke-linecap:butt;stroke-linejoin:miter;stroke-opacity:1" />
    <path
       d="m 539.78297,454.25043 c 1.28903,0 68.3188,-15.46841 68.3188,-15.46841 l -12.89034,-56.7175 -38.67102,29.00327 -27.71423,1.93355 z"
       id="path3044"
       style="fill:#aa4400;stroke:#000000;stroke-width:1px;stroke-linecap:butt;stroke-linejoin:miter;stroke-opacity:1" />
    <path
       d="m 409.26828,464.88496 0.96678,13.53485 11.27904,2.57807 60.26234,-10.63453 -0.64451,-12.89034 z"
       id="path3046"
       style="fill:#aa4400;stroke:#000000;stroke-width:1px;stroke-linecap:butt;stroke-linejoin:miter;stroke-opacity:1" />
    <path
       d="m 487.5771,455.2172 0,8.70098 21.26906,0.64452 7.7342,-6.44517 -1.28903,-6.76743 z"
       id="path3048"
       style="fill:#aa4400;stroke:#000000;stroke-width:1px;stroke-linecap:butt;stroke-linejoin:miter;stroke-opacity:1" />
    <path
       d="m 487.89935,446.83848 11.60131,0.32226 -1.28903,-14.50163 16.75744,-0.96678 -5.15614,-35.12617 -31.25907,3.22258 -11.60131,13.85712 9.3455,9.66775 11.6013,2.25581 z"
       id="path3050"
       style="fill:#aa4400;stroke:#000000;stroke-width:1px;stroke-linecap:butt;stroke-linejoin:miter;stroke-opacity:1" />
    <path
       d="m 605.5237,317.61283 49.30555,-10.95679 -20.30228,-99.90013 -3.86711,-9.02324 -49.6278,6.76743 10.31227,40.28231 7.7342,1.61129 0.96678,17.40196 -9.99002,2.25581 z"
       id="path3052"
       style="fill:#aa4400;stroke:#000000;stroke-width:1px;stroke-linecap:butt;stroke-linejoin:miter;stroke-opacity:1" />
    <path
       d="m 585.22142,248.64951 -22.5581,-3.54484 -66.7075,19.65776 -16.75745,-36.41521 98.6111,-22.88035 10.31227,38.99328 z"
       id="path3054"
       style="fill:#aa4400;stroke:#000000;stroke-width:1px;stroke-linecap:butt;stroke-linejoin:miter;stroke-opacity:1" />
    <path
       d="m 607.77951,375.2971 38.34876,-4.51162 -5.80065,-21.91358 -35.12618,6.44517 z"
       id="path3056"
       style="fill:#aa4400;stroke:#000000;stroke-width:1px;stroke-linecap:butt;stroke-linejoin:miter;stroke-opacity:1" />
    <path
       d="m 638.07181,323.41348 5.47839,38.34876 12.24583,-1.28904 -5.4784,-37.70424 z"
       id="path3058"
       style="fill:#aa4400;stroke:#000000;stroke-width:1px;stroke-linecap:butt;stroke-linejoin:miter;stroke-opacity:1" />
    <path
       d="m 635.816,323.41348 3.8671,23.84713 -38.34876,5.80065 5.4784,-25.78068 z"
       id="path3060"
       style="fill:#aa4400;stroke:#000000;stroke-width:1px;stroke-linecap:butt;stroke-linejoin:miter;stroke-opacity:1" />
    <path
       d="m 490.47742,310.52314 -2.25581,80.88688 37.70425,-2.25581 1.61129,13.2126 15.14615,-3.22259 -0.96678,-12.24582 13.85712,-3.8671 8.70098,-71.21913 -30.61456,-17.0797 -17.40196,2.57807 z"
       id="path3062"
       style="fill:#aa4400;stroke:#000000;stroke-width:1px;stroke-linecap:butt;stroke-linejoin:miter;stroke-opacity:1" />
    <path
       d="m 607.13499,379.1642 6.12292,37.70424 36.41521,-8.37872 -2.90033,-36.09295 z"
       id="path3064"
       style="fill:#aa4400;stroke:#000000;stroke-width:1px;stroke-linecap:butt;stroke-linejoin:miter;stroke-opacity:1" />
  </g>
  <g
     id="layer3">
    <path
       d="m 299.7004,778.44247 1.61129,-25.78068 -14.50163,-33.51489 65.09621,-14.50163"
       id="path3067"
       style="fill:none;stroke:#ffe680;stroke-width:7;stroke-linecap:butt;stroke-linejoin:miter;stroke-miterlimit:4;stroke-opacity:1;stroke-dasharray:none" />
    <path
       d="m 287.13231,718.82465 -16.43518,-19.65777 -0.64452,-38.67102 75.73075,-4.18936 22.88035,-23.20261 47.69426,9.66775 23.20261,96.03303 36.41521,-8.70098"
       id="path3069"
       style="fill:none;stroke:#ffe680;stroke-width:7;stroke-linecap:butt;stroke-linejoin:miter;stroke-miterlimit:4;stroke-opacity:1;stroke-dasharray:none" />
  </g>
</svg>
